{
    "usesTypeScript": false,
    "usesCssModule": true,
    "cssPreprocessor": "scss",
    "testLibrary": "jest",
    "component": {
        "default": {
            "path": "src/components",
            "withLazy": false,
            "withStory": false,
            "withStyle": true,
            "withTest": true
        },
        "page": {
            "path": "src/containers/pages",
            "withLazy": true,
            "withStory": false,
            "withStyle": true,
            "withTest": true
        },
        "layout": {
            "path": "src/layout",
            "withLazy": false,
            "withStory": false,
            "withStyle": false,
            "withTest": true
        }
    }
}